Tracking Input Data • MAHERYCohortHarmonization
…
Authenticating with Google Drive

If you have the authentication file, you can simply point to it with
your drive_auth() function in an interactive session. If
this is successful, you should be able to access the Google Drive files
from R with drive_find().

path_to_auth <- "path/to/your/auth.json"
drive_auth(path = path_to_auth)
drive_find()

In a non-interactive session, make sure to set the environment
variable with .Renviron.

#> # A dribble: 27 × 3
#>    name                                                  id       drive_resource
#>    <chr>                                                 <drv_id> <list>        
#>  1 DATA Health Surveillance as of 05/03/2023             1fL0TLB… <named list>  
#>  2 olo_vaovao_na_zaza_teraka_individual_enrollement.xlsx 10tmcsm… <named list>  
#>  3 2018                                                  169yRof… <named list>  
#>  4 New household enrolled                                1sN3wOA… <named list>  
#>  5 tokantrano_vaovao_household_enrollement_named.csv     11SmUIo… <named list>  
#>  6 tokantrano_vaovao_household_enrollement_coded.csv     1d5zFz4… <named list>  
#>  7 tokantrano_vaovao_household_enrollement.xlsx          1oYDF0R… <named list>  
#>  8 refy_zaza_sy_tosi_dra_child_status_and_blood_pressur… 1lU_70X… <named list>  
#>  9 refy_zaza_sy_tosi_dra_child_status_and_blood_pressur… 1cyFxmG… <named list>  
#> 10 refy_zaza_sy_tosi_dra_child_status_and_blood_pressur… 1BidCTN… <named list>  
#> # ℹ 17 more rows
…
